<?xml version="1.0" encoding="UTF-8" standalone="no"?>
<svg
   xmlns:dc="http://purl.org/dc/elements/1.1/"
   xmlns:cc="http://creativecommons.org/ns#"
   xmlns:rdf="http://www.w3.org/1999/02/22-rdf-syntax-ns#"
   xmlns:svg="http://www.w3.org/2000/svg"
   xmlns="http://www.w3.org/2000/svg"
   xmlns:xlink="http://www.w3.org/1999/xlink"
   id="svg2"
   height="520"
   width="520"
   version="1.1">
  <metadata
     id="metadata19">
    <rdf:RDF>
      <cc:Work
         rdf:about="">
        <dc:format>image/svg+xml</dc:format>
        <dc:type
           rdf:resource="http://purl.org/dc/dcmitype/StillImage" />
        <dc:title></dc:title>
      </cc:Work>
    </rdf:RDF>
  </metadata>
  <defs
     id="defs4">
    <linearGradient
       id="linearGradient8409">
      <stop
         offset="0"
         style="stop-color:#ffffff;stop-opacity:0.65934098"
         id="stop8411" />
      <stop
         offset="1"
         style="stop-color:#ffffff;stop-opacity:0"
         id="stop8413" />
    </linearGradient>
    <linearGradient
       gradientUnits="userSpaceOnUse"
       xlink:href="#linearGradient8409"
       id="linearGradient11193"
       y2="583.36218"
       x2="346.5"
       y1="437.36218"
       x1="200.5" />
    <linearGradient
       gradientTransform="matrix(3.5068493,0,0,3.5068493,-699.12329,-1529.7633)"
       gradientUnits="userSpaceOnUse"
       xlink:href="#linearGradient8409"
       id="linearGradient20"
       y2="583.36218"
       x2="346.5"
       y1="437.36218"
       x1="200.5" />
  </defs>
  <path
     id="path11"
     style="fill:#d3d7cf;fill-opacity:1;fill-rule:evenodd;stroke:#4e9a06;stroke-width:49.64300537;stroke-linecap:round;stroke-linejoin:round;stroke-miterlimit:4;stroke-dasharray:none;stroke-dashoffset:0;stroke-opacity:1"
     d="m 490.96752,260.1361 a 230.47904,230.47921 0 0 1 -460.958073,0 230.47904,230.47921 0 1 1 460.958073,0 z" />
  <path
     id="path13"
     style="fill:url(#linearGradient20);fill-opacity:1;fill-rule:evenodd;stroke:none"
     d="m 516,260 a 256,256 0 0 1 -512,0 256,256 0 1 1 512,0 z" />
  <path
     id="path15"
     style="fill:#4e9a06"
     d="m 232.11213,418.0369 0,-132.14926 -131.16307,0 0,-55.22656 131.16307,0 0,-131.163072 55.88402,0 0,131.163072 131.16305,0 0,55.22656 -131.16305,0 0,132.14926 -55.88402,0" />
</svg>
