<?xml version="1.0" encoding="UTF-8" standalone="no"?>
<!-- Created with Inkscape (http://www.inkscape.org/) -->

<svg
   xmlns:dc="http://purl.org/dc/elements/1.1/"
   xmlns:cc="http://creativecommons.org/ns#"
   xmlns:rdf="http://www.w3.org/1999/02/22-rdf-syntax-ns#"
   xmlns:svg="http://www.w3.org/2000/svg"
   xmlns="http://www.w3.org/2000/svg"
   xmlns:sodipodi="http://sodipodi.sourceforge.net/DTD/sodipodi-0.dtd"
   xmlns:inkscape="http://www.inkscape.org/namespaces/inkscape"
   width="520"
   height="520"
   viewBox="0 0 520.00001 520.00001"
   id="svg4145"
   version="1.1"
   inkscape:version="0.91 r13725"
   sodipodi:docname="location_outdoor.svg">
  <defs
     id="defs4147" />
  <sodipodi:namedview
     id="base"
     pagecolor="#ffffff"
     bordercolor="#666666"
     borderopacity="1.0"
     inkscape:pageopacity="0.0"
     inkscape:pageshadow="2"
     inkscape:zoom="0.7"
     inkscape:cx="243.509"
     inkscape:cy="123.21005"
     inkscape:document-units="px"
     inkscape:current-layer="layer1"
     showgrid="false"
     units="px"
     inkscape:object-paths="false"
     inkscape:object-nodes="true"
     inkscape:window-width="1860"
     inkscape:window-height="1047"
     inkscape:window-x="60"
     inkscape:window-y="0"
     inkscape:window-maximized="1" />
  <metadata
     id="metadata4150">
    <rdf:RDF>
      <cc:Work
         rdf:about="">
        <dc:format>image/svg+xml</dc:format>
        <dc:type
           rdf:resource="http://purl.org/dc/dcmitype/StillImage" />
        <dc:title></dc:title>
      </cc:Work>
    </rdf:RDF>
  </metadata>
  <g
     inkscape:label="Layer 1"
     inkscape:groupmode="layer"
     id="layer1"
     transform="translate(0,-532.36216)">
    <path
       style="opacity:1;fill:#c7ffff;fill-opacity:1;stroke:none;stroke-width:6;stroke-linecap:round;stroke-linejoin:round;stroke-miterlimit:4;stroke-dasharray:none;stroke-opacity:1"
       d="m 4,570.36219 512,0 0,296 -512,0 z"
       id="rect4895"
       inkscape:connector-curvature="0"
       sodipodi:nodetypes="ccccc" />
    <rect
       style="opacity:1;fill:#b7ffa1;fill-opacity:1;stroke:none;stroke-width:6;stroke-linecap:round;stroke-linejoin:round;stroke-miterlimit:4;stroke-dasharray:none;stroke-opacity:1"
       id="rect4893"
       width="512"
       height="148"
       x="4"
       y="866.36212" />
    <g
       id="g4811"
       transform="translate(60,-3.0000513)">
      <path
         sodipodi:nodetypes="cc"
         inkscape:connector-curvature="0"
         id="path4189-9"
         d="m 402.64863,821.02732 37.31531,126.84213"
         style="fill:none;fill-rule:evenodd;stroke:#671010;stroke-width:16.71224403;stroke-linecap:round;stroke-linejoin:miter;stroke-miterlimit:4;stroke-dasharray:none;stroke-opacity:1" />
      <path
         sodipodi:nodetypes="cc"
         inkscape:connector-curvature="0"
         id="path4189-9-6"
         d="M 263.32237,872.86453 232.8009,966.57825"
         style="fill:none;fill-rule:evenodd;stroke:#671010;stroke-width:16.71224403;stroke-linecap:round;stroke-linejoin:miter;stroke-miterlimit:4;stroke-dasharray:none;stroke-opacity:1" />
      <path
         sodipodi:nodetypes="cc"
         inkscape:connector-curvature="0"
         id="path4189-9-0"
         d="m 357.23894,883.45895 -2.202,97.807"
         style="fill:none;fill-rule:evenodd;stroke:#671010;stroke-width:16.71224403;stroke-linecap:round;stroke-linejoin:miter;stroke-miterlimit:4;stroke-dasharray:none;stroke-opacity:1" />
      <ellipse
         transform="matrix(0.97261677,0.23241477,-0.32544675,0.94556037,0,0)"
         ry="101.9172"
         rx="89.832504"
         cy="696.60278"
         cx="570.32269"
         id="path4233-2"
         style="opacity:1;fill:#5858ff;fill-opacity:1;stroke:#000000;stroke-width:8.01884079;stroke-linecap:round;stroke-linejoin:round;stroke-miterlimit:4;stroke-dasharray:none;stroke-opacity:1" />
      <ellipse
         transform="matrix(0.97261677,0.23241477,-0.32544675,0.94556037,0,0)"
         ry="67.944801"
         rx="59.88834"
         cy="696.60278"
         cx="570.32269"
         id="path4233-9-7"
         style="opacity:1;fill:#ff0000;fill-opacity:1;stroke:#000000;stroke-width:8.01884079;stroke-linecap:round;stroke-linejoin:round;stroke-miterlimit:4;stroke-dasharray:none;stroke-opacity:1" />
      <ellipse
         transform="matrix(0.97261677,0.23241477,-0.32544675,0.94556037,0,0)"
         ry="33.972401"
         rx="29.94417"
         cy="696.60278"
         cx="570.32269"
         id="path4233-9-1-0"
         style="opacity:1;fill:#ffff00;fill-opacity:1;stroke:#000000;stroke-width:8.01884079;stroke-linecap:round;stroke-linejoin:round;stroke-miterlimit:4;stroke-dasharray:none;stroke-opacity:1" />
    </g>
    <g
       id="g4867"
       transform="translate(6,-13.000051)">
      <path
         inkscape:connector-curvature="0"
         id="path4136"
         d="m 35.594744,980.36917 23.06295,-71.87093 0,-48.00837 m 52.859746,-2.14064 0,45.86773 21.40638,74.72505"
         style="fill:none;fill-rule:evenodd;stroke:#004000;stroke-width:21.19122505;stroke-linecap:round;stroke-linejoin:round;stroke-miterlimit:4;stroke-dasharray:none;stroke-opacity:1" />
      <path
         inkscape:connector-curvature="0"
         d="M 170.31509,687.06961 A 42.409611,125.58404 0 0 1 212.72434,812.14093 42.409611,125.58404 0 0 1 170.66137,938.2335"
         id="path4138"
         style="fill:none;fill-opacity:1;stroke:#004000;stroke-width:21.19122505;stroke-linecap:round;stroke-linejoin:round;stroke-miterlimit:4;stroke-dasharray:none;stroke-opacity:1" />
      <path
         inkscape:connector-curvature="0"
         d="m 151.50469,828.29425 -135.659746,2.85419 41.38566,-37.04701 59.937836,0.0287 87.33944,-1.42708"
         style="fill:none;fill-rule:evenodd;stroke:#004000;stroke-width:21.19122505;stroke-linecap:round;stroke-linejoin:round;stroke-miterlimit:4;stroke-dasharray:none;stroke-opacity:1"
         id="path4142" />
      <path
         inkscape:connector-curvature="0"
         id="path4144"
         d="m 170.6188,688.2298 -16.82083,136.2657 17.91651,113.64843"
         style="fill:none;fill-rule:evenodd;stroke:#004000;stroke-width:7.06374216;stroke-linecap:round;stroke-linejoin:round;stroke-miterlimit:4;stroke-dasharray:none;stroke-opacity:1" />
      <circle
         r="26.401192"
         cy="737.96088"
         cx="89.368843"
         id="path4146"
         style="fill:none;fill-opacity:1;stroke:#004000;stroke-width:21.19122505;stroke-linecap:round;stroke-linejoin:round;stroke-miterlimit:4;stroke-dasharray:none;stroke-opacity:1" />
    </g>
    <circle
       style="opacity:1;fill:#ffff95;fill-opacity:1;stroke:none;stroke-width:6;stroke-linecap:round;stroke-linejoin:round;stroke-miterlimit:4;stroke-dasharray:none;stroke-opacity:1"
       id="path4917"
       cx="265.62949"
       cy="625.19952"
       r="45.456863" />
    <circle
       style="opacity:1;fill:#fff671;fill-opacity:1;stroke:none;stroke-width:6;stroke-linecap:round;stroke-linejoin:round;stroke-miterlimit:4;stroke-dasharray:none;stroke-opacity:1"
       id="path4917-5"
       cx="268.65997"
       cy="626.20972"
       r="32.324879" />
  </g>
</svg>
